Codebook example with manual labelling
…
and our data dictionary.

bfi.dictionary

## # A tibble: 28 x 8
##    ItemLabel Item         Giant3 Big6    Little12  Keying IPIP100 variable
##  * <fct>     <fct>        <fct>  <fct>   <fct>      <int> <fct>   <chr>   
##  1 q_146     Am indiffer… Cohes… Agreea… Compassi…     -1 B5:A    A1      
##  2 q_1162    Inquire abo… Cohes… Agreea… Compassi…      1 B5:A    A2      
##  3 q_1206    Know how to… Cohes… Agreea… Compassi…      1 B5:A    A3      
##  4 q_1364    Love childr… Cohes… Agreea… Compassi…      1 B5:A    A4      
##  5 q_1419    Make people… Cohes… Agreea… Compassi…      1 B5:A    A5      
##  6 q_124     Am exacting… Stabi… Consci… Orderlin…      1 B5:C    C1      
##  7 q_530     Continue un… Stabi… Consci… Orderlin…      1 B5:C    C2      
##  8 q_619     Do things a… Stabi… Consci… Orderlin…      1 B5:C    C3      
##  9 q_626     Do things i… Stabi… Consci… Industri…     -1 B5:C    C4      
## 10 q_1949    Waste my ti… Stabi… Consci… Industri…     -1 B5:C    C5      
## # ... with 18 more rows
…
