Generate a data dictionnary and search for variables with `look_for()` • labelled
…
Default printing of tibbles

It is a common need to easily get a description of all variables in a
data frame.

When a data frame is converted into a tibble (e.g. with
dplyr::as_tibble()), it as a nice printing showing the
first rows of the data frame as well as the type of column.

library(dplyr)

iris %>% as_tibble()

## # A tibble: 150 × 5
##    Sepal.Length Sepal.Width Petal.Length Petal.Width Species
##           <dbl>       <dbl>        <dbl>       <dbl> <fct>  
##  1          5.1         3.5          1.4         0.2 setosa 
##  2          4.9         3            1.4         0.2 setosa 
##  3          4.7         3.2          1.3         0.2 setosa 
##  4          4.6         3.1          1.5         0.2 setosa 
##  5          5           3.6          1.4         0.2 setosa 
##  6          5.4         3.9          1.7         0.4 setosa 
##  7          4.6         3.4          1.4         0.3 setosa 
##  8          5           3.4          1.5         0.2 setosa 
##  9          4.4         2.9          1.4         0.2 setosa 
## 10          4.9         3.1          1.5         0.1 setosa 
## # ℹ 140 more rows

However, when you have too many variables, all of them cannot be
printed and their are just listed.

data(fertility, package = "questionr")
women

## # A tibble: 2,000 × 17
##    id_woman id_household weight interview_date date_of_birth   age  residency
##       <dbl>        <dbl>  <dbl> <date>         <date>        <dbl> <hvn_lbll>
##  1      391          381  1.80  2012-05-05     1997-03-07       15          2
##  2     1643         1515  1.80  2012-01-23     1982-01-06       30          2
##  3       85           85  1.80  2012-01-21     1979-01-01       33          2
##  4      881          844  1.80  2012-01-06     1968-03-29       43          2
##  5     1981         1797  1.80  2012-05-11     1986-05-25       25          2
##  6     1072         1015  0.998 2012-02-20     1993-07-03       18          2
##  7     1978         1794  0.998 2012-02-23     1967-01-28       45          2
##  8     1607         1486  0.998 2012-02-20     1989-01-21       23          2
##  9      738          711  0.192 2012-03-09     1962-07-24       49          2
## 10     1656         1525  0.192 2012-03-15     1980-12-25       31          2
## # ℹ 1,990 more rows
## # ℹ 10 more variables: region <hvn_lbll>, instruction <hvn_lbll>,
## #   employed <hvn_lbl_>, matri <hvn_lbll>, religion <hvn_lbll>,
## #   newspaper <hvn_lbll>, radio <hvn_lbll>, tv <hvn_lbll>,
## #   ideal_nb_children <hvn_lbl_>, test <hvn_lbl_>
…
Alternatively, you can use lookfor_to_long_format() to
transform results into a long format with one row per factor level and
per value label.

look_for(women) %>% lookfor_to_long_format()

## # A tibble: 41 × 7
##      pos variable       label               col_type missing levels value_labels
##    <int> <chr>          <chr>               <chr>      <int> <chr>  <chr>       
##  1     1 id_woman       Woman Id            dbl            0 NA     NA          
##  2     2 id_household   Household Id        dbl            0 NA     NA          
##  3     3 weight         Sample weight       dbl            0 NA     NA          
##  4     4 interview_date Interview date      date           0 NA     NA          
##  5     5 date_of_birth  Date of birth       date           0 NA     NA          
##  6     6 age            Age at last annive… dbl            0 NA     NA          
##  7     7 residency      Urban / rural resi… dbl+lbl        0 NA     [1] urban   
##  8     7 residency      Urban / rural resi… dbl+lbl        0 NA     [2] rural   
##  9     8 region         Region              dbl+lbl        0 NA     [1] North   
## 10     8 region         Region              dbl+lbl        0 NA     [2] East    
## # ℹ 31 more rows

Both can be combined:

look_for(women) %>%
  lookfor_to_long_format() %>%
  convert_list_columns_to_character()

## # A tibble: 41 × 7
##      pos variable       label               col_type missing levels value_labels
##    <int> <chr>          <chr>               <chr>      <int> <chr>  <chr>       
##  1     1 id_woman       Woman Id            dbl            0 NA     NA          
##  2     2 id_household   Household Id        dbl            0 NA     NA          
##  3     3 weight         Sample weight       dbl            0 NA     NA          
##  4     4 interview_date Interview date      date           0 NA     NA          
##  5     5 date_of_birth  Date of birth       date           0 NA     NA          
##  6     6 age            Age at last annive… dbl            0 NA     NA          
##  7     7 residency      Urban / rural resi… dbl+lbl        0 NA     [1] urban   
##  8     7 residency      Urban / rural resi… dbl+lbl        0 NA     [2] rural   
##  9     8 region         Region              dbl+lbl        0 NA     [1] North   
## 10     8 region         Region              dbl+lbl        0 NA     [2] East    
## # ℹ 31 more rows
…
